


EVENT   1
 PAGE   1
  0()
 PAGE   2
  // condition: switch 31 is ON
  0()



EVENT   4
 PAGE   1
  0()
 PAGE   2
  // condition: switch 31 is ON
  0()



EVENT   5
 PAGE   1
  0()
 PAGE   2
  // condition: switch 31 is ON
  0()



EVENT   9
 PAGE   1
  0()



EVENT   10
 PAGE   1
  0()



EVENT   13
 PAGE   1
  Wait(60)
  ShowMessageFace("",0,1,1,1)
  ShowMessage("さよなら……")
  242(1)
  Wait(60)
  ShowMessageFace("ruka_fc1",0,0,2,2)
  ShowMessage("\\n<Luka>ソニア――！！　……あれ？")
  205(9,bytes(0x04,0x08,0x6f,0x3a,0x13,0x52,0x50,0x47,0x3a,0x3a,0x4d,0x6f,0x76,0x65,0x52,0x6f,0x75,0x74,0x65,0x09,0x3a,0x0c,0x40,0x72,0x65,0x70,0x65,0x61,0x74,0x46,0x3a,0x0f,0x40,0x73,0x6b,0x69,0x70,0x70,0x61,0x62,0x6c,0x65,0x46,0x3a,0x0a,0x40,0x77,0x61,0x69,0x74,0x54,0x3a,0x0a,0x40,0x6c,0x69,0x73,0x74,0x5b,0x07,0x6f,0x3a,0x15,0x52,0x50,0x47,0x3a,0x3a,0x4d,0x6f,0x76,0x65,0x43,0x6f,0x6d,0x6d,0x61,0x6e,0x64,0x07,0x3a,0x0a,0x40,0x63,0x6f,0x64,0x65,0x69,0x15,0x3a,0x10,0x40,0x70,0x61,0x72,0x61,0x6d,0x65,0x74,0x65,0x72,0x73,0x5b,0x00,0x6f,0x3b,0x0a,0x07,0x3b,0x0b,0x69,0x00,0x3b,0x0c,0x5b,0x00))
  Wait(30)
  241(bytes(0x04,0x08,0x6f,0x3a,0x0d,0x52,0x50,0x47,0x3a,0x3a,0x42,0x47,0x4d,0x08,0x3a,0x0a,0x40,0x6e,0x61,0x6d,0x65,0x49,0x22,0x14,0x73,0x63,0x65,0x6e,0x65,0x5f,0x65,0x70,0x69,0x6c,0x6f,0x67,0x75,0x65,0x32,0x06,0x3a,0x06,0x45,0x54,0x3a,0x0c,0x40,0x76,0x6f,0x6c,0x75,0x6d,0x65,0x69,0x69,0x3a,0x0b,0x40,0x70,0x69,0x74,0x63,0x68,0x69,0x69))
  ShowMessageFace("sonia_fc2",0,0,2,3)
  ShowMessage("\\n<Sonya>ちょ、ちょっと……")
  ShowMessage("なんで急に、私の名前を叫んでるの？")
  205(10,bytes(0x04,0x08,0x6f,0x3a,0x13,0x52,0x50,0x47,0x3a,0x3a,0x4d,0x6f,0x76,0x65,0x52,0x6f,0x75,0x74,0x65,0x09,0x3a,0x0c,0x40,0x72,0x65,0x70,0x65,0x61,0x74,0x46,0x3a,0x0f,0x40,0x73,0x6b,0x69,0x70,0x70,0x61,0x62,0x6c,0x65,0x46,0x3a,0x0a,0x40,0x77,0x61,0x69,0x74,0x54,0x3a,0x0a,0x40,0x6c,0x69,0x73,0x74,0x5b,0x07,0x6f,0x3a,0x15,0x52,0x50,0x47,0x3a,0x3a,0x4d,0x6f,0x76,0x65,0x43,0x6f,0x6d,0x6d,0x61,0x6e,0x64,0x07,0x3a,0x0a,0x40,0x63,0x6f,0x64,0x65,0x69,0x17,0x3a,0x10,0x40,0x70,0x61,0x72,0x61,0x6d,0x65,0x74,0x65,0x72,0x73,0x5b,0x00,0x6f,0x3b,0x0a,0x07,0x3b,0x0b,0x69,0x00,0x3b,0x0c,0x5b,0x00))
  ShowMessageFace("iriasu_fc4",2,0,2,4)
  ShowMessage("\\n<Ilias>多くの事を受け止めきれず、頭が混乱したのでしょう。")
  ShowMessage("大異変の成り行きに、この世界を狙う二つの並行世界……")
  ShowMessageFace("ruka_fc1",0,0,2,5)
  ShowMessage("\\n<Luka>あっ、そうか……")
  ShowMessage("女神が勝利した世界と、邪神が勝利した世界があるんだよね。")
  205(9,bytes(0x04,0x08,0x6f,0x3a,0x13,0x52,0x50,0x47,0x3a,0x3a,0x4d,0x6f,0x76,0x65,0x52,0x6f,0x75,0x74,0x65,0x09,0x3a,0x0c,0x40,0x72,0x65,0x70,0x65,0x61,0x74,0x46,0x3a,0x0f,0x40,0x73,0x6b,0x69,0x70,0x70,0x61,0x62,0x6c,0x65,0x46,0x3a,0x0a,0x40,0x77,0x61,0x69,0x74,0x46,0x3a,0x0a,0x40,0x6c,0x69,0x73,0x74,0x5b,0x07,0x6f,0x3a,0x15,0x52,0x50,0x47,0x3a,0x3a,0x4d,0x6f,0x76,0x65,0x43,0x6f,0x6d,0x6d,0x61,0x6e,0x64,0x07,0x3a,0x0a,0x40,0x63,0x6f,0x64,0x65,0x69,0x18,0x3a,0x10,0x40,0x70,0x61,0x72,0x61,0x6d,0x65,0x74,0x65,0x72,0x73,0x5b,0x00,0x6f,0x3b,0x0a,0x07,0x3b,0x0b,0x69,0x00,0x3b,0x0c,0x5b,0x00))
  205(10,bytes(0x04,0x08,0x6f,0x3a,0x13,0x52,0x50,0x47,0x3a,0x3a,0x4d,0x6f,0x76,0x65,0x52,0x6f,0x75,0x74,0x65,0x09,0x3a,0x0c,0x40,0x72,0x65,0x70,0x65,0x61,0x74,0x46,0x3a,0x0f,0x40,0x73,0x6b,0x69,0x70,0x70,0x61,0x62,0x6c,0x65,0x46,0x3a,0x0a,0x40,0x77,0x61,0x69,0x74,0x54,0x3a,0x0a,0x40,0x6c,0x69,0x73,0x74,0x5b,0x07,0x6f,0x3a,0x15,0x52,0x50,0x47,0x3a,0x3a,0x4d,0x6f,0x76,0x65,0x43,0x6f,0x6d,0x6d,0x61,0x6e,0x64,0x07,0x3a,0x0a,0x40,0x63,0x6f,0x64,0x65,0x69,0x18,0x3a,0x10,0x40,0x70,0x61,0x72,0x61,0x6d,0x65,0x74,0x65,0x72,0x73,0x5b,0x00,0x6f,0x3b,0x0a,0x07,0x3b,0x0b,0x69,0x00,0x3b,0x0c,0x5b,0x00))
  PictureDisplay(5,"80_eden_st31",0,0,0,0,100,100,0,0)
  PictureMove(5,null,0,0,0,0,100,100,255,0,60,true)
  ShowMessageFace("eden_fc2",0,0,2,6)
  ShowMessage("\\n<Eden>ええ、その通り……")
  ShowMessage("そして我々は、女神イリアス様の世界より来たのです。")
  ShowMessageFace("eden_fc2",0,0,2,7)
  ShowMessage("\\n<Eden>できるだけ、破滅を遅らせるため……")
  ShowMessage("そして、多くの世界から選ばれた者を我々の世界に導くため。")
  ShowMessageFace("ruka_fc1",0,0,2,8)
  ShowMessage("\\n<Luka>でも、助かるのは一部の選ばれた者だけなんて……")
  ShowMessage("そんなの絶対認められないよ。")
  PictureDisplay(5,"80_shion_st01",0,0,-150,0,100,100,255,0)
  PictureDisplay(6,"80_gnosis_st01",0,0,150,0,100,100,255,0)
  ShowMessageFace("shion_fc1",4,0,2,9)
  ShowMessage("\\n<シオン>じゃあ、全並行世界の全人類を私達の世界に迎えろっていうのか……")
  ShowMessage("いくら何でも、無理に決まってるだろ。")
  ShowMessageFace("gnosis_fc1",2,0,2,10)
  ShowMessage("\\n<グノーシス>ゆえに我々は、選ばれし者だけを楽園に迎え入れる。")
  ShowMessage("各世界のカオス侵蝕率を低め、破滅を遅らせながらな……")
  PictureClear(5)
  PictureClear(6)
  ShowMessageFace("sonia_fc4",0,0,2,11)
  ShowMessage("\\n<Sonya>そういうのって、嫌だな……")
  ShowMessage("選ばれた者しか、助けられないなんて……")
  ShowMessageFace("iriasu_fc4",7,0,2,12)
  ShowMessage("\\n<Ilias>では、どうするというのです？")
  ShowMessage("全員は助けられない以上、救うべき者を選ぶしかありません。")
  ShowMessageFace("ruka_fc1",0,0,2,13)
  ShowMessage("\\n<Luka>だからって……！")
  ShowMessage("天使の一方的な判断で、救われる者とそうでない者を選ぶなんて！")
  ShowMessageFace("iriasu_fc4",7,0,2,14)
  ShowMessage("\\n<Ilias>ならば、誰が選ぶのならあなたは納得するのです。")
  ShowMessage("民主的に、全員で相談の後に多数決で決めますか？")
  ShowMessageFace("iriasu_fc4",7,0,2,15)
  ShowMessage("\\n<Ilias>そんな事をすれば、流血の大惨事となるでしょう。")
  ShowMessage("ならばいっそ、クジ引きで助かる者を選びますか？")
  ShowMessageFace("ruka_fc1",0,0,2,16)
  ShowMessage("\\n<Luka>……………………")
  PictureDisplay(5,"80_eden_st34",0,0,0,0,100,100,255,0)
  ShowMessageFace("eden_fc2",3,0,2,17)
  ShowMessage("\\n<Eden>我々とて辛いのです。")
  ShowMessage("できれば、全員を助けたいのです……")
  ShowMessageFace("iriasu_fc4",2,0,2,18)
  ShowMessage("\\n<Ilias>しかし、それが不可能な以上――")
  ShowMessage("誰かが選ばなければならない、そういう事ですね。")
  ShowMessageFace("eden_fc2",3,0,2,19)
  ShowMessage("\\n<Eden>もう一つ、重大なる懸念事項があります。")
  ShowMessage("邪神の支配する世界から来た者達は、恐ろしい計画を企てています。")
  ShowMessageFace("iriasu_fc4",2,0,2,20)
  ShowMessage("\\n<Ilias>ええ、リリスが示唆していましたね……")
  ShowMessage("還網の魔術を利用して、魂を自身の世界に集めるなど……")
  ShowMessageFace("ruka_fc1",0,0,2,21)
  ShowMessage("\\n<Luka>それ、どういう意味なんですか？")
  ShowMessageFace("iriasu_fc4",2,0,2,22)
  ShowMessage("\\n<Ilias>知る必要はないと言ったでしょう……")
  ShowMessage("あまりにおぞましく、口にするにも憚られます。")
  ShowMessageFace("iriasu_fc4",7,0,2,23)
  ShowMessage("\\n<Ilias>ただ、その過程において大量虐殺が行われるのは間違いありません。")
  ShowMessage("邪神達の手により、この世界の者は全て滅ぼされるでしょう。")
  ShowMessageFace("eden_fc2",3,0,2,24)
  ShowMessage("\\n<Eden>現在、我々が必死で敵計画の阻止を図っています。")
  ShowMessage("それゆえ、こちらのイリアス様のお力になれない事をお許し下さい。")
  PictureDisplay(5,"80_eden_st21",0,0,-200,0,100,100,255,0)
  PictureDisplay(6,"80_eden_st31",0,0,200,0,100,100,255,0)
  ShowMessageFace("eden_fc1",0,0,2,25)
  ShowMessage("\\n<Eden>大丈夫です、エデン……")
  ShowMessage("イリアス様は、このエデンにお任せ下さい。")
  ShowMessageFace("eden_fc2",1,0,2,26)
  ShowMessage("\\n<Eden>さすがはエデン……")
  ShowMessage("このエデン、その忠義に感服いたします。")
  PictureClear(6)
  PictureDisplay(5,"80_shion_st05",0,0,0,0,100,100,255,0)
  ShowMessageFace("shion_fc1",4,0,2,27)
  ShowMessage("\\n<シオン>おいおい、エデン同士で褒め合ってるんじゃないぞ……")
  PictureClear(5)
  ShowMessageFace("iriasu_fc4",2,0,2,28)
  ShowMessage("\\n<Ilias>あなた達の事は分かりました……")
  ShowMessage("しかし民の選別計画は、受け入れられない者も多いでしょうね。")
  ShowMessageFace("ruka_fc1",0,0,2,29)
  ShowMessage("\\n<Luka>僕は、受け入れたくない……")
  ShowMessageFace("sonia_fc1",5,0,2,30)
  ShowMessage("\\n<Sonya>私も嫌よ、そんな計画受け入れたくない！")
  ShowMessage("何か、他の手があるはずよ！")
  PictureDisplay(5,"80_eden_st34",0,0,0,0,100,100,255,0)
  ShowMessageFace("eden_fc2",3,0,2,31)
  ShowMessage("\\n<Eden>他の手段を模索すること、止めはしません。")
  ShowMessage("むしろ、悔いのないよう徹底的に探すのです。")
  ShowMessageFace("eden_fc2",3,0,2,32)
  ShowMessage("\\n<Eden>……その果てに、行き着くでしょう。")
  ShowMessage("結局、我々の出した結論以外に道はない事に。")
  ShowMessageFace("ruka_fc1",0,0,2,33)
  ShowMessage("\\n<Luka>……………………")
  PictureDisplay(5,"80_eden_st31",0,0,0,0,100,100,255,0)
  ShowMessageFace("eden_fc2",0,0,2,34)
  ShowMessage("\\n<Eden>勇者ルカ、近いうちあなたに選択の時が訪れるでしょう。")
  ShowMessage("その時までに、心を決めておくのです。")
  ShowMessageFace("ruka_fc1",0,0,2,35)
  ShowMessage("\\n<Luka>選択の時……？")
  ShowMessageFace("eden_fc2",0,0,2,36)
  ShowMessage("\\n<Eden>その時になれば分かります。")
  ShowMessage("あなたは正しい決断をすると、私は信じていますよ。")
  PictureDisplay(5,"80_shion_st01",0,0,-150,0,100,100,255,0)
  PictureDisplay(6,"80_gnosis_st01",0,0,150,0,100,100,255,0)
  ShowMessageFace("shion_fc1",0,0,2,37)
  ShowMessage("\\n<シオン>さて、だいたい話は済んだな。")
  ShowMessage("あんまり、ここでのんびりもしてられないぜ。")
  ShowMessageFace("gnosis_fc1",3,0,2,38)
  ShowMessage("\\n<グノーシス>リリス三姉妹、ゴルド沖3海里地点を東方向に飛行中……")
  ShowMessage("……私のエネルギー残量、半分以下？　どこで消耗した……？")
  PictureDisplay(5,"80_eden_st21",0,0,-200,0,100,100,255,0)
  PictureDisplay(6,"80_eden_st31",0,0,200,0,100,100,255,0)
  ShowMessageFace("eden_fc2",0,0,2,39)
  ShowMessage("\\n<Eden>それではイリアス様、我々はここで失礼いたします。")
  ShowMessage("エデン、イリアス様をよろしくお願いしますね。")
  ShowMessageFace("eden_fc1",0,0,2,40)
  ShowMessage("\\n<Eden>こちらはエデンにお任せ下さい。")
  ShowMessage("エデンも、そちらのイリアス様をよろしくお願いします。")
  PictureDisplay(5,"80_shion_st04",0,0,-150,0,100,100,255,0)
  PictureDisplay(6,"80_gnosis_st01",0,0,150,0,100,100,255,0)
  ShowMessageFace("shion_fc1",3,0,2,41)
  ShowMessage("\\n<シオン>頼んだぜ、全裸エデン。")
  ShowMessage("行くぜ、着衣エデン。")
  ShowMessageFace("gnosis_fc1",1,0,2,42)
  ShowMessage("\\n<グノーシス>大いなる選択の時に、また会おう……")
  PictureClear(5)
  PictureClear(6)
  Wait(60)
  212(4,501,false)
  212(5,501,false)
  212(1,501,false)
  ChangeSwitch(31,31,0)
  Wait(60)
  ShowMessageFace("iriasu_fc4",2,0,2,43)
  ShowMessage("\\n<Ilias>行ってしまいましたか……")
  ShowMessageFace("ruka_fc1",0,0,2,44)
  ShowMessage("\\n<Luka>色んな事実を知らされたね。")
  ShowMessage("それに――")
  241(bytes(0x04,0x08,0x6f,0x3a,0x0d,0x52,0x50,0x47,0x3a,0x3a,0x42,0x47,0x4d,0x08,0x3a,0x0a,0x40,0x6e,0x61,0x6d,0x65,0x49,0x22,0x00,0x06,0x3a,0x06,0x45,0x54,0x3a,0x0c,0x40,0x76,0x6f,0x6c,0x75,0x6d,0x65,0x69,0x69,0x3a,0x0b,0x40,0x70,0x69,0x74,0x63,0x68,0x69,0x69))
  223(bytes(0x04,0x08,0x75,0x3a,0x09,0x54,0x6f,0x6e,0x65,0x25,0x00,0x00,0x00,0x00,0x00,0x00,0x00,0x00,0x00,0x00,0x00,0x00,0x00,0x00,0x00,0x00,0x00,0x00,0x00,0x00,0x00,0x00,0x00,0x00,0x00,0x00,0x00,0x00,0x00,0xe0,0x6f,0x40),30,true)
  Wait(30)
  250(bytes(0x04,0x08,0x6f,0x3a,0x0c,0x52,0x50,0x47,0x3a,0x3a,0x53,0x45,0x08,0x3a,0x0a,0x40,0x6e,0x61,0x6d,0x65,0x49,0x22,0x0e,0x6d,0x6f,0x6e,0x5f,0x6b,0x6f,0x64,0x6f,0x75,0x06,0x3a,0x06,0x45,0x54,0x3a,0x0b,0x40,0x70,0x69,0x74,0x63,0x68,0x69,0x69,0x3a,0x0c,0x40,0x76,0x6f,0x6c,0x75,0x6d,0x65,0x69,0x69))
  PictureDisplay(7,"iv_adramelek1",0,0,0,0,100,100,0,0)
  PictureMove(7,null,0,0,0,0,100,100,255,0,30,true)
  PictureMove(7,null,0,0,0,0,100,100,0,0,30,true)
  PictureClear(7)
  223(bytes(0x04,0x08,0x75,0x3a,0x09,0x54,0x6f,0x6e,0x65,0x25,0x00,0x00,0x00,0x00,0x00,0x00,0x00,0x00,0x00,0x00,0x00,0x00,0x00,0x00,0x00,0x00,0x00,0x00,0x00,0x00,0x00,0x00,0x00,0x00,0x00,0x00,0x00,0x00,0x00,0x00,0x00,0x00),30,true)
  241(bytes(0x04,0x08,0x6f,0x3a,0x0d,0x52,0x50,0x47,0x3a,0x3a,0x42,0x47,0x4d,0x08,0x3a,0x0a,0x40,0x6e,0x61,0x6d,0x65,0x49,0x22,0x14,0x73,0x63,0x65,0x6e,0x65,0x5f,0x65,0x70,0x69,0x6c,0x6f,0x67,0x75,0x65,0x32,0x06,0x3a,0x06,0x45,0x54,0x3a,0x0c,0x40,0x76,0x6f,0x6c,0x75,0x6d,0x65,0x69,0x69,0x3a,0x0b,0x40,0x70,0x69,0x74,0x63,0x68,0x69,0x69))
  205(9,bytes(0x04,0x08,0x6f,0x3a,0x13,0x52,0x50,0x47,0x3a,0x3a,0x4d,0x6f,0x76,0x65,0x52,0x6f,0x75,0x74,0x65,0x09,0x3a,0x0c,0x40,0x72,0x65,0x70,0x65,0x61,0x74,0x46,0x3a,0x0f,0x40,0x73,0x6b,0x69,0x70,0x70,0x61,0x62,0x6c,0x65,0x46,0x3a,0x0a,0x40,0x77,0x61,0x69,0x74,0x46,0x3a,0x0a,0x40,0x6c,0x69,0x73,0x74,0x5b,0x07,0x6f,0x3a,0x15,0x52,0x50,0x47,0x3a,0x3a,0x4d,0x6f,0x76,0x65,0x43,0x6f,0x6d,0x6d,0x61,0x6e,0x64,0x07,0x3a,0x0a,0x40,0x63,0x6f,0x64,0x65,0x69,0x15,0x3a,0x10,0x40,0x70,0x61,0x72,0x61,0x6d,0x65,0x74,0x65,0x72,0x73,0x5b,0x00,0x6f,0x3b,0x0a,0x07,0x3b,0x0b,0x69,0x00,0x3b,0x0c,0x5b,0x00))
  205(10,bytes(0x04,0x08,0x6f,0x3a,0x13,0x52,0x50,0x47,0x3a,0x3a,0x4d,0x6f,0x76,0x65,0x52,0x6f,0x75,0x74,0x65,0x09,0x3a,0x0c,0x40,0x72,0x65,0x70,0x65,0x61,0x74,0x46,0x3a,0x0f,0x40,0x73,0x6b,0x69,0x70,0x70,0x61,0x62,0x6c,0x65,0x46,0x3a,0x0a,0x40,0x77,0x61,0x69,0x74,0x54,0x3a,0x0a,0x40,0x6c,0x69,0x73,0x74,0x5b,0x07,0x6f,0x3a,0x15,0x52,0x50,0x47,0x3a,0x3a,0x4d,0x6f,0x76,0x65,0x43,0x6f,0x6d,0x6d,0x61,0x6e,0x64,0x07,0x3a,0x0a,0x40,0x63,0x6f,0x64,0x65,0x69,0x17,0x3a,0x10,0x40,0x70,0x61,0x72,0x61,0x6d,0x65,0x74,0x65,0x72,0x73,0x5b,0x00,0x6f,0x3b,0x0a,0x07,0x3b,0x0b,0x69,0x00,0x3b,0x0c,0x5b,0x00))
  ShowMessageFace("ruka_fc1",0,0,2,45)
  ShowMessage("\\n<Luka>……ソニア、何か忘れてる気がしない？")
  ShowMessage("なんだか、とっても大事な事を……")
  ShowMessageFace("sonia_fc4",0,0,2,46)
  ShowMessage("\\n<Sonya>忘れてるっていうか……頭の中がゴチャゴチャね。")
  ShowMessage("衝撃の事実が目白押しだし。")
  ShowMessageFace("iriasu_fc4",2,0,2,47)
  ShowMessage("\\n<Ilias>しゃっきりしなさい……")
  ShowMessage("リリスの話で、恐ろしい計画が判明したのですよ。")
  ShowMessageFace("iriasu_fc4",7,0,2,48)
  ShowMessage("\\n<Ilias>魔王が目論んでいるのは全生命の抹殺。")
  ShowMessage("ただちに魔王城に乗り込み、魔王を討たねばなりません。")
  ShowMessageFace("sonia_fc2",2,0,2,49)
  ShowMessage("\\n<Sonya>マナの乱れの元って、この世界のイリアス様だったのよね。")
  ShowMessage("でも、もう消えちゃったから……")
  ShowMessageFace("iriasu_fc4",0,0,2,50)
  ShowMessage("\\n<Ilias>ええ……マナの流れが正常化し、怪鳥を復活させる事ができるはず。")
  ShowMessage("さっそく、怪鳥のほこらに行きましょう。")
  ShowMessageFace("ruka_fc1",0,0,2,51)
  ShowMessage("\\n<Luka>この後、正史はどんな風になるんですか？")
  ShowMessageFace("iriasu_fc4",2,0,2,52)
  ShowMessage("\\n<Ilias>四精霊の力を手に入れたルカは、魔王城に乗り込みます。")
  ShowMessage("そして魔王を――")
  ShowMessageFace("ruka_fc1",0,0,2,53)
  ShowMessage("\\n<Luka>なるほど、魔王を倒すんですね。")
  ShowMessageFace("iriasu_fc4",5,0,2,54)
  ShowMessage("\\n<Ilias>ま、まあ……それっぽいですね。")
  ShowMessageFace("sonia_fc2",2,0,2,55)
  ShowMessage("\\n<Sonya>どれっぽいの……？")
  ShowMessageFace("iriasu_fc5",0,0,2,56)
  ShowMessage("\\n<Ilias>諸悪の元凶を、バッサリやるんですよ！")
  ShowMessage("分かりきっている事でしょうが……！")
  ShowMessageFace("ruka_fc1",0,0,2,57)
  ShowMessage("\\n<Luka>それじゃあ、魔王城に行こう！")
  ShowMessage("……っと、その前に神鳥のほこらだったね。")
  ShowMessageFace("iriasu_fc4",2,0,2,58)
  ShowMessage("\\n<Ilias>（このまま歴史を忠実に辿れば、私達は――）")
  ShowMessageFace("ruka_fc1",0,0,2,59)
  ShowMessage("\\n<Luka>……どうしたの、イリアス様？")
  ShowMessageFace("iriasu_fc4",5,0,2,60)
  ShowMessage("\\n<Ilias>いえ、考え事をしていただけです！")
  ShowMessage("さあ、行きましょう！")
  242(5)
  Wait(30)
  250(bytes(0x04,0x08,0x6f,0x3a,0x0c,0x52,0x50,0x47,0x3a,0x3a,0x53,0x45,0x08,0x3a,0x0a,0x40,0x6e,0x61,0x6d,0x65,0x49,0x22,0x10,0x6d,0x6f,0x6e,0x5f,0x61,0x73,0x69,0x6f,0x74,0x6f,0x33,0x06,0x3a,0x06,0x45,0x54,0x3a,0x0b,0x40,0x70,0x69,0x74,0x63,0x68,0x69,0x69,0x3a,0x0c,0x40,0x76,0x6f,0x6c,0x75,0x6d,0x65,0x69,0x69))
  205(9,bytes(0x04,0x08,0x6f,0x3a,0x13,0x52,0x50,0x47,0x3a,0x3a,0x4d,0x6f,0x76,0x65,0x52,0x6f,0x75,0x74,0x65,0x09,0x3a,0x0c,0x40,0x72,0x65,0x70,0x65,0x61,0x74,0x46,0x3a,0x0f,0x40,0x73,0x6b,0x69,0x70,0x70,0x61,0x62,0x6c,0x65,0x46,0x3a,0x0a,0x40,0x77,0x61,0x69,0x74,0x46,0x3a,0x0a,0x40,0x6c,0x69,0x73,0x74,0x5b,0x08,0x6f,0x3a,0x15,0x52,0x50,0x47,0x3a,0x3a,0x4d,0x6f,0x76,0x65,0x43,0x6f,0x6d,0x6d,0x61,0x6e,0x64,0x07,0x3a,0x0a,0x40,0x63,0x6f,0x64,0x65,0x69,0x06,0x3a,0x10,0x40,0x70,0x61,0x72,0x61,0x6d,0x65,0x74,0x65,0x72,0x73,0x5b,0x00,0x6f,0x3b,0x0a,0x07,0x3b,0x0b,0x69,0x06,0x3b,0x0c,0x5b,0x00,0x6f,0x3b,0x0a,0x07,0x3b,0x0b,0x69,0x00,0x3b,0x0c,0x5b,0x00))
  205(10,bytes(0x04,0x08,0x6f,0x3a,0x13,0x52,0x50,0x47,0x3a,0x3a,0x4d,0x6f,0x76,0x65,0x52,0x6f,0x75,0x74,0x65,0x09,0x3a,0x0c,0x40,0x72,0x65,0x70,0x65,0x61,0x74,0x46,0x3a,0x0f,0x40,0x73,0x6b,0x69,0x70,0x70,0x61,0x62,0x6c,0x65,0x46,0x3a,0x0a,0x40,0x77,0x61,0x69,0x74,0x54,0x3a,0x0a,0x40,0x6c,0x69,0x73,0x74,0x5b,0x08,0x6f,0x3a,0x15,0x52,0x50,0x47,0x3a,0x3a,0x4d,0x6f,0x76,0x65,0x43,0x6f,0x6d,0x6d,0x61,0x6e,0x64,0x07,0x3a,0x0a,0x40,0x63,0x6f,0x64,0x65,0x69,0x06,0x3a,0x10,0x40,0x70,0x61,0x72,0x61,0x6d,0x65,0x74,0x65,0x72,0x73,0x5b,0x00,0x6f,0x3b,0x0a,0x07,0x3b,0x0b,0x69,0x06,0x3b,0x0c,0x5b,0x00,0x6f,0x3b,0x0a,0x07,0x3b,0x0b,0x69,0x00,0x3b,0x0c,0x5b,0x00))
  205(9,bytes(0x04,0x08,0x6f,0x3a,0x13,0x52,0x50,0x47,0x3a,0x3a,0x4d,0x6f,0x76,0x65,0x52,0x6f,0x75,0x74,0x65,0x09,0x3a,0x0c,0x40,0x72,0x65,0x70,0x65,0x61,0x74,0x46,0x3a,0x0f,0x40,0x73,0x6b,0x69,0x70,0x70,0x61,0x62,0x6c,0x65,0x46,0x3a,0x0a,0x40,0x77,0x61,0x69,0x74,0x46,0x3a,0x0a,0x40,0x6c,0x69,0x73,0x74,0x5b,0x08,0x6f,0x3a,0x15,0x52,0x50,0x47,0x3a,0x3a,0x4d,0x6f,0x76,0x65,0x43,0x6f,0x6d,0x6d,0x61,0x6e,0x64,0x07,0x3a,0x0a,0x40,0x63,0x6f,0x64,0x65,0x69,0x06,0x3a,0x10,0x40,0x70,0x61,0x72,0x61,0x6d,0x65,0x74,0x65,0x72,0x73,0x5b,0x00,0x6f,0x3b,0x0a,0x07,0x3b,0x0b,0x69,0x06,0x3b,0x0c,0x5b,0x00,0x6f,0x3b,0x0a,0x07,0x3b,0x0b,0x69,0x00,0x3b,0x0c,0x5b,0x00))
  205(10,bytes(0x04,0x08,0x6f,0x3a,0x13,0x52,0x50,0x47,0x3a,0x3a,0x4d,0x6f,0x76,0x65,0x52,0x6f,0x75,0x74,0x65,0x09,0x3a,0x0c,0x40,0x72,0x65,0x70,0x65,0x61,0x74,0x46,0x3a,0x0f,0x40,0x73,0x6b,0x69,0x70,0x70,0x61,0x62,0x6c,0x65,0x46,0x3a,0x0a,0x40,0x77,0x61,0x69,0x74,0x46,0x3a,0x0a,0x40,0x6c,0x69,0x73,0x74,0x5b,0x0a,0x6f,0x3a,0x15,0x52,0x50,0x47,0x3a,0x3a,0x4d,0x6f,0x76,0x65,0x43,0x6f,0x6d,0x6d,0x61,0x6e,0x64,0x07,0x3a,0x0a,0x40,0x63,0x6f,0x64,0x65,0x69,0x06,0x3a,0x10,0x40,0x70,0x61,0x72,0x61,0x6d,0x65,0x74,0x65,0x72,0x73,0x5b,0x00,0x6f,0x3b,0x0a,0x07,0x3b,0x0b,0x69,0x06,0x3b,0x0c,0x5b,0x00,0x6f,0x3b,0x0a,0x07,0x3b,0x0b,0x69,0x06,0x3b,0x0c,0x5b,0x00,0x6f,0x3b,0x0a,0x07,0x3b,0x0b,0x69,0x2c,0x3b,0x0c,0x5b,0x00,0x6f,0x3b,0x0a,0x07,0x3b,0x0b,0x69,0x00,0x3b,0x0c,0x5b,0x00))
  205(14,bytes(0x04,0x08,0x6f,0x3a,0x13,0x52,0x50,0x47,0x3a,0x3a,0x4d,0x6f,0x76,0x65,0x52,0x6f,0x75,0x74,0x65,0x09,0x3a,0x0c,0x40,0x72,0x65,0x70,0x65,0x61,0x74,0x46,0x3a,0x0f,0x40,0x73,0x6b,0x69,0x70,0x70,0x61,0x62,0x6c,0x65,0x46,0x3a,0x0a,0x40,0x77,0x61,0x69,0x74,0x54,0x3a,0x0a,0x40,0x6c,0x69,0x73,0x74,0x5b,0x08,0x6f,0x3a,0x15,0x52,0x50,0x47,0x3a,0x3a,0x4d,0x6f,0x76,0x65,0x43,0x6f,0x6d,0x6d,0x61,0x6e,0x64,0x07,0x3a,0x0a,0x40,0x63,0x6f,0x64,0x65,0x69,0x06,0x3a,0x10,0x40,0x70,0x61,0x72,0x61,0x6d,0x65,0x74,0x65,0x72,0x73,0x5b,0x00,0x6f,0x3b,0x0a,0x07,0x3b,0x0b,0x69,0x06,0x3b,0x0c,0x5b,0x00,0x6f,0x3b,0x0a,0x07,0x3b,0x0b,0x69,0x00,0x3b,0x0c,0x5b,0x00))
  ShowMessageFace("",0,1,1,61)
  ShowMessage("さよなら、ルカ……")
  Wait(60)
  241(bytes(0x04,0x08,0x6f,0x3a,0x0d,0x52,0x50,0x47,0x3a,0x3a,0x42,0x47,0x4d,0x08,0x3a,0x0a,0x40,0x6e,0x61,0x6d,0x65,0x49,0x22,0x0b,0x66,0x69,0x65,0x6c,0x64,0x33,0x06,0x3a,0x06,0x45,0x54,0x3a,0x0c,0x40,0x76,0x6f,0x6c,0x75,0x6d,0x65,0x69,0x69,0x3a,0x0b,0x40,0x70,0x69,0x74,0x63,0x68,0x69,0x69))
  ShowMessageFace("ruka_fc1",0,0,2,62)
  ShowMessage("\\n<Luka>さよならじゃない……必ず、君を取り戻す。")
  Wait(30)
  ShowMessageFace("sonia_fc2",2,0,2,63)
  ShowMessage("\\n<Sonya>えっ……？　何か言った？")
  ShowMessageFace("ruka_fc1",0,0,2,64)
  ShowMessage("\\n<Luka>んっ……？　なんだろう、つい勝手に……")
  ShowMessageFace("iriasu_fc4",7,0,2,65)
  ShowMessage("\\n<Ilias>何をしているのです！　早く行きますよ！")
  ShowMessageFace("ruka_fc1",0,0,2,66)
  ShowMessage("\\n<Luka>はい！")
  ShowMessageFace("sonia_fc1",0,0,2,67)
  ShowMessage("\\n<Sonya>はーい！")
  250(bytes(0x04,0x08,0x6f,0x3a,0x0c,0x52,0x50,0x47,0x3a,0x3a,0x53,0x45,0x08,0x3a,0x0a,0x40,0x6e,0x61,0x6d,0x65,0x49,0x22,0x10,0x6d,0x6f,0x6e,0x5f,0x61,0x73,0x69,0x6f,0x74,0x6f,0x33,0x06,0x3a,0x06,0x45,0x54,0x3a,0x0b,0x40,0x70,0x69,0x74,0x63,0x68,0x69,0x69,0x3a,0x0c,0x40,0x76,0x6f,0x6c,0x75,0x6d,0x65,0x69,0x69))
  205(9,bytes(0x04,0x08,0x6f,0x3a,0x13,0x52,0x50,0x47,0x3a,0x3a,0x4d,0x6f,0x76,0x65,0x52,0x6f,0x75,0x74,0x65,0x09,0x3a,0x0c,0x40,0x72,0x65,0x70,0x65,0x61,0x74,0x46,0x3a,0x0f,0x40,0x73,0x6b,0x69,0x70,0x70,0x61,0x62,0x6c,0x65,0x46,0x3a,0x0a,0x40,0x77,0x61,0x69,0x74,0x46,0x3a,0x0a,0x40,0x6c,0x69,0x73,0x74,0x5b,0x08,0x6f,0x3a,0x15,0x52,0x50,0x47,0x3a,0x3a,0x4d,0x6f,0x76,0x65,0x43,0x6f,0x6d,0x6d,0x61,0x6e,0x64,0x07,0x3a,0x0a,0x40,0x63,0x6f,0x64,0x65,0x69,0x06,0x3a,0x10,0x40,0x70,0x61,0x72,0x61,0x6d,0x65,0x74,0x65,0x72,0x73,0x5b,0x00,0x6f,0x3b,0x0a,0x07,0x3b,0x0b,0x69,0x2c,0x3b,0x0c,0x5b,0x00,0x6f,0x3b,0x0a,0x07,0x3b,0x0b,0x69,0x00,0x3b,0x0c,0x5b,0x00))
  205(14,bytes(0x04,0x08,0x6f,0x3a,0x13,0x52,0x50,0x47,0x3a,0x3a,0x4d,0x6f,0x76,0x65,0x52,0x6f,0x75,0x74,0x65,0x09,0x3a,0x0c,0x40,0x72,0x65,0x70,0x65,0x61,0x74,0x46,0x3a,0x0f,0x40,0x73,0x6b,0x69,0x70,0x70,0x61,0x62,0x6c,0x65,0x46,0x3a,0x0a,0x40,0x77,0x61,0x69,0x74,0x54,0x3a,0x0a,0x40,0x6c,0x69,0x73,0x74,0x5b,0x09,0x6f,0x3a,0x15,0x52,0x50,0x47,0x3a,0x3a,0x4d,0x6f,0x76,0x65,0x43,0x6f,0x6d,0x6d,0x61,0x6e,0x64,0x07,0x3a,0x0a,0x40,0x63,0x6f,0x64,0x65,0x69,0x06,0x3a,0x10,0x40,0x70,0x61,0x72,0x61,0x6d,0x65,0x74,0x65,0x72,0x73,0x5b,0x00,0x6f,0x3b,0x0a,0x07,0x3b,0x0b,0x69,0x06,0x3b,0x0c,0x5b,0x00,0x6f,0x3b,0x0a,0x07,0x3b,0x0b,0x69,0x2c,0x3b,0x0c,0x5b,0x00,0x6f,0x3b,0x0a,0x07,0x3b,0x0b,0x69,0x00,0x3b,0x0c,0x5b,0x00))
  Wait(60)
  355("gain_medal(64)")
  ShowMessageFace("",0,0,2,68)
  ShowMessage("動き出した運命、紡がれていく歴史。")
  ShowMessage("そこに存在しない少女、それを忘れた僕。")
  ShowMessageFace("",0,0,2,69)
  ShowMessage("いずれ訪れる、光と闇の選択。")
  ShowMessage("僕達の道は重なるのか、それとも交差するのか。")
  ShowMessageFace("",0,0,2,70)
  ShowMessage("この冒険はどこに行き着き、その果てに何をもたらすのか――")
  ShowMessage("疑惑と戸惑いを抱え、僕達は選択の時へと歩み出すのだった。")
  ChangeSwitch(1525,1525,0)
  355("set_class_level(525, 351, 1, false, false)")
  355("add_stand_actor(525)")
  ChangeVariable(1001,1001,0,0,34)
  ChangeVariable(1076,1076,0,0,7)
  ChangeSwitch(100,100,1)
  221()
  Wait(60)
  ChangeSwitch(31,31,1)
  ChangeSwitch(32,32,1)
  ChangeSwitch(33,33,1)
  ChangeSwitch(34,34,1)
  ChangeSwitch(35,35,1)
  ChangeSwitch(36,36,1)
  ChangeSwitch(37,37,1)
  ChangeSwitch(38,38,1)
  TeleportPlayer(0,620,0,1,0,2)
  241(bytes(0x04,0x08,0x6f,0x3a,0x0d,0x52,0x50,0x47,0x3a,0x3a,0x42,0x47,0x4d,0x08,0x3a,0x0a,0x40,0x6e,0x61,0x6d,0x65,0x49,0x22,0x14,0x73,0x63,0x65,0x6e,0x65,0x5f,0x6b,0x61,0x6e,0x61,0x73,0x69,0x6d,0x69,0x33,0x06,0x3a,0x06,0x45,0x54,0x3a,0x0c,0x40,0x76,0x6f,0x6c,0x75,0x6d,0x65,0x69,0x69,0x3a,0x0b,0x40,0x70,0x69,0x74,0x63,0x68,0x69,0x69))
  222()
  0()



EVENT   14
 PAGE   1
  0()
